<?xml version="1.0" encoding="UTF-8" standalone="no"?>
<!-- Generator: Adobe Illustrator 12.0.0, SVG Export Plug-In . SVG Version: 6.00 Build 51448)  -->
<svg xmlns:dc="http://purl.org/dc/elements/1.1/" xmlns:cc="http://web.resource.org/cc/" xmlns:rdf="http://www.w3.org/1999/02/22-rdf-syntax-ns#" xmlns:svg="http://www.w3.org/2000/svg" xmlns="http://www.w3.org/2000/svg" xmlns:xlink="http://www.w3.org/1999/xlink" xmlns:sodipodi="http://sodipodi.sourceforge.net/DTD/sodipodi-0.dtd" xmlns:inkscape="http://www.inkscape.org/namespaces/inkscape" version="1.0" baseProfile="basic" id="Layer_1" width="250" height="575" viewBox="0 0 145.514 509.753" overflow="visible" enable-background="new 0 0 145.514 509.753" xml:space="preserve" sodipodi:version="0.32" inkscape:version="0.44.1" sodipodi:docname="flameything.svg" sodipodi:docbase="C:"><metadata id="metadata83"><rdf:RDF><cc:Work rdf:about=""><dc:format>image/svg+xml</dc:format><dc:type rdf:resource="http://purl.org/dc/dcmitype/StillImage"/></cc:Work></rdf:RDF></metadata><defs id="defs81"><linearGradient inkscape:collect="always" xlink:href="#XMLID_2_" id="linearGradient1972" gradientUnits="userSpaceOnUse" x1="78.060501" y1="471.0293" x2="80.862198" y2="523.63788" gradientTransform="matrix(0.886527, 0, 0, 0.886527, -11.7997, 33.79)"/></defs><sodipodi:namedview inkscape:window-height="742" inkscape:window-width="1024" inkscape:pageshadow="2" inkscape:pageopacity="0.0" guidetolerance="10.0" gridtolerance="10.0" objecttolerance="10.0" borderopacity="1.0" bordercolor="#666666" pagecolor="#ffffff" id="base" width="250px" height="575px" inkscape:zoom="1" inkscape:cx="144.0915" inkscape:cy="306.864" inkscape:window-x="-4" inkscape:window-y="-4" inkscape:current-layer="Layer_1"/>











<linearGradient id="XMLID_2_" gradientUnits="userSpaceOnUse" x1="78.060501" y1="471.0293" x2="80.862198" y2="523.63788">
	<stop offset="0" style="stop-color: rgb(255, 255, 255);" id="stop52"/>
	<stop offset="0.002" style="stop-color: rgb(255, 255, 246);" id="stop54"/>
	<stop offset="0.0131" style="stop-color: rgb(255, 252, 200);" id="stop56"/>
	<stop offset="0.0256" style="stop-color: rgb(255, 250, 157);" id="stop58"/>
	<stop offset="0.0391" style="stop-color: rgb(255, 248, 119);" id="stop60"/>
	<stop offset="0.0537" style="stop-color: rgb(255, 246, 87);" id="stop62"/>
	<stop offset="0.0698" style="stop-color: rgb(255, 245, 59);" id="stop64"/>
	<stop offset="0.0881" style="stop-color: rgb(255, 244, 37);" id="stop66"/>
	<stop offset="0.1094" style="stop-color: rgb(255, 243, 20);" id="stop68"/>
	<stop offset="0.1357" style="stop-color: rgb(255, 242, 9);" id="stop70"/>
	<stop offset="0.1727" style="stop-color: rgb(255, 242, 2);" id="stop72"/>
	<stop offset="0.2753" style="stop-color: rgb(255, 242, 0);" id="stop74"/>
	<stop offset="0.6573" style="stop-color: rgb(237, 28, 36);" id="stop76"/>
</linearGradient>

<g transform="matrix(0.886527, 0, 0, 0.886527, -11.7997, 33.79)" id="g3">
	<path d="M 9.291,446 C 9.291,452.627 14.664,458 21.291,458 L 127.291,458 C 133.918,458 139.291,452.627 139.291,446 L 139.291,340.333 L 9.291,340.333 L 9.291,446 L 9.291,446 z " id="path5" style="fill: rgb(0, 173, 239); stroke: black;"/>
</g><path d="M 117.00384,302.4077 C 111.68468,305.06728 111.68468,309.83059 111.68468,315.7056 L 111.68468,429.18106 C 111.68468,435.05608 106.92137,439.81938 101.04636,439.81938 L 7.0744949,439.81938 C 1.1994809,439.81938 -3.5638291,435.05608 -3.5638291,429.18106 L -3.5638291,315.7056 C -6.2234101,309.49992 -5.3368831,309.49992 -11.542572,305.06728" id="path7" style="fill: none; stroke: black; stroke-width: 1.77305; stroke-miterlimit: 4; stroke-dasharray: none;"/><line x1="-2.8430824" y1="335.2092" x2="111.85224" y2="335.2092" id="line9" style="fill: none; stroke: black; stroke-width: 0.886527;"/><line x1="41.206673" y1="34.676548" x2="66.028542" y2="34.676548" id="line11" style="fill: none; stroke: black; stroke-width: 1.77305;"/><g transform="matrix(0.886527, 0, 0, 0.886527, -11.7997, 33.79)" id="g13">
	<g id="g15">
		<path d="M 97.585,315.012 C 95.22,313.43 88.601,307.514 87.79,290.559 L 87.79,283.397 C 87.825,282.615 87.866,281.82 87.923,281.001 L 87.79,281.002 L 87.79,263 L 59.79,263 L 59.79,294.046 C 57.945,311.792 49.172,315.25 49.172,315.25 L 49.464,315.252 C 29.02,324.52 14.791,345.092 14.791,369 C 14.791,401.585 41.206,428 73.791,428 C 106.376,428 132.791,401.585 132.791,369 C 132.79,344.885 118.314,324.161 97.585,315.012 z " id="path17" style="fill: white;"/>
	</g>
	<g id="g19">
		<path d="M 97.585,315.012 C 95.22,313.43 88.601,307.514 87.79,290.559 L 87.79,283.397 C 87.825,282.615 87.866,281.82 87.923,281.001 L 87.79,281.002 L 87.79,263 L 59.79,263 L 59.79,294.046 C 57.945,311.792 49.172,315.25 49.172,315.25 L 49.464,315.252 C 29.02,324.52 14.791,345.092 14.791,369 C 14.791,401.585 41.206,428 73.791,428 C 106.376,428 132.791,401.585 132.791,369 C 132.79,344.885 118.314,324.161 97.585,315.012 z " id="path21" style="fill: none; stroke: black; stroke-width: 1.5; stroke-miterlimit: 4; stroke-dasharray: none;"/>
	</g>
</g><rect x="41.169437" y="287.52203" width="24.786407" height="8.8652697" id="rect23" style="fill: rgb(188, 190, 192); stroke: black; stroke-width: 0.886527;"/><rect x="41.133091" y="270.49274" width="24.933573" height="16.844013" id="rect25" style="fill: rgb(157, 159, 161); stroke: black; stroke-width: 1.32979; stroke-miterlimit: 4; stroke-dasharray: none;"/><rect x="45.45491" y="273.04147" width="16.511566" height="14.295248" id="rect27" style="fill: white; stroke: black; stroke-width: 0.886527;"/><g transform="matrix(0.886527, 0, 0, 0.886527, -11.7997, 33.79)" id="g29">
	<g id="g31">
		<path d="M 121.958,39.667 L 104.298,39.667 C 97.003,39.121 93.741,37.424 92.29,35.972 L 92.29,31 C 92.29,24.373 86.918,19 80.29,19 L 67.29,19 C 60.663,19 55.29,24.373 55.29,31 L 55.29,259 C 55.29,265.627 60.663,271 67.29,271 L 80.29,271 C 86.918,271 92.29,265.627 92.29,259 L 92.29,257.824 C 93.963,256.217 98.034,254.275 107.958,254.084 L 107.958,254 L 121.958,254 L 121.958,248 L 107.958,248 C 98.034,247.808 93.963,245.839 92.29,244.208 L 92.29,49.459 C 93.963,47.828 98.034,45.859 107.958,45.667 L 107.958,45.667 L 121.958,45.667 L 121.958,39.667 z " id="path33" style="fill: white;"/>
	</g>
	<g id="g35">
		<path d="M 121.958,39.667 L 104.298,39.667 C 97.003,39.121 93.741,37.424 92.29,35.972 L 92.29,31 C 92.29,24.373 86.918,19 80.29,19 L 67.29,19 C 60.663,19 55.29,24.373 55.29,31 L 55.29,259 C 55.29,265.627 60.663,271 67.29,271 L 80.29,271 C 86.918,271 92.29,265.627 92.29,259 L 92.29,257.824 C 93.963,256.217 98.034,254.275 107.958,254.084 L 107.958,254 L 121.958,254 L 121.958,248 L 107.958,248 C 98.034,247.808 93.963,245.839 92.29,244.208 L 92.29,49.459 C 93.963,47.828 98.034,45.859 107.958,45.667 L 107.958,45.667 L 121.958,45.667 L 121.958,39.667 z " id="path37" style="fill: none; stroke: black; stroke-width: 1.5; stroke-miterlimit: 4; stroke-dasharray: none;"/>
	</g>
</g><rect x="46.969097" y="34.676548" width="13.297905" height="239.36229" id="rect39" style="fill: none; stroke: black; stroke-width: 0.886527;"/><g transform="matrix(0.886527, 0, 0, 0.886527, -11.7997, 33.79)" id="g41">
	<g id="g43">
		<path d="M 19.31,391.667 C 28.196,413 49.239,427.999 73.791,427.999 C 98.343,427.999 119.386,413 128.271,391.667 L 19.31,391.667 z " id="path45" style="fill: rgb(255, 242, 0);"/>
	</g>
	<g id="g47">
		<path d="M 19.31,391.667 C 28.196,413 49.239,427.999 73.791,427.999 C 98.343,427.999 119.386,413 128.271,391.667 L 19.31,391.667 z " id="path49" style="fill: none; stroke: black;"/>
	</g>
</g><path d="M 55.591458,452.82917 C 57.79891,456.96836 63.170378,461.93735 67.673935,469.37974 C 71.727136,476.08011 64.503714,486.50035 56.78827,485.13421 C 49.013428,483.75921 46.061293,473.45333 50.315736,467.68116 C 52.087903,465.27689 53.822837,463.14391 54.319292,460.0978 C 54.827272,456.97723 54.607413,457.54727 54.487732,454.20772 L 55.591458,452.82917 z " id="path78" style="fill: url(#linearGradient1972) rgb(0, 0, 0); stroke: black; stroke-width: 0.886527;"/><path style="fill: none; fill-rule: evenodd; stroke: black; stroke-width: 0.664895; stroke-linecap: butt; stroke-linejoin: miter; stroke-miterlimit: 4; stroke-dasharray: none; stroke-opacity: 1;" d="M 98.251667,71.612002 L 150.82859,71.612002" id="path1974"/><path style="fill: none; fill-rule: evenodd; stroke: black; stroke-width: 0.664895; stroke-linecap: butt; stroke-linejoin: miter; stroke-miterlimit: 4; stroke-dasharray: none; stroke-opacity: 1;" d="M 98.251667,255.63122 L 150.82859,255.63122" id="path2863"/><path style="fill: none; fill-rule: evenodd; stroke: black; stroke-width: 0.664895; stroke-linecap: butt; stroke-linejoin: miter; stroke-miterlimit: 4; stroke-dasharray: none; stroke-opacity: 1;" d="M 58.332154,394.86269 L 150.82859,394.86269" id="path2865" sodipodi:nodetypes="cc"/><path style="fill: none; fill-rule: evenodd; stroke: black; stroke-width: 0.664895; stroke-linecap: butt; stroke-linejoin: miter; stroke-miterlimit: 4; stroke-dasharray: none; stroke-opacity: 1;" d="M 81.699674,418.23021 L 150.82859,418.23021" id="path2867" sodipodi:nodetypes="cc"/><path style="fill: none; fill-rule: evenodd; stroke: black; stroke-width: 0.664895; stroke-linecap: butt; stroke-linejoin: miter; stroke-miterlimit: 4; stroke-dasharray: none; stroke-opacity: 1;" d="M 60.279447,470.80713 L 150.82859,470.80713" id="path2869" sodipodi:nodetypes="cc"/><text xml:space="preserve" style="font-size: 28px; font-style: normal; font-variant: normal; font-weight: normal; font-stretch: normal; text-align: start; line-height: 125%; text-anchor: start; fill: black; fill-opacity: 1; stroke: none; stroke-width: 1px; stroke-linecap: butt; stroke-linejoin: miter; stroke-opacity: 1; font-family: Verdana;" x="-301.917" y="305.287" id="text2911" sodipodi:linespacing="125%"><tspan sodipodi:role="line" id="tspan2913" x="-301.917" y="305.287"/></text>

<text xml:space="preserve" style="font-size: 16px; font-style: normal; font-variant: normal; font-weight: normal; font-stretch: normal; text-align: start; line-height: 125%; text-anchor: start; fill: black; fill-opacity: 1; stroke: none; stroke-width: 1px; stroke-linecap: butt; stroke-linejoin: miter; stroke-opacity: 1; font-family: Trebuchet MS;" x="154.321" y="76.1318" id="text2919" sodipodi:linespacing="125%"><tspan sodipodi:role="line" id="tspan2921" x="154.321" y="76.1318">1</tspan></text>

<text xml:space="preserve" style="font-size: 16px; font-style: normal; font-variant: normal; font-weight: normal; font-stretch: normal; text-align: start; line-height: 125%; text-anchor: start; fill: black; fill-opacity: 1; stroke: none; stroke-width: 1px; stroke-linecap: butt; stroke-linejoin: miter; stroke-opacity: 1; font-family: Trebuchet MS;" x="153.814" y="261.924" id="text2923" sodipodi:linespacing="125%"><tspan sodipodi:role="line" id="tspan2925" x="153.814" y="261.924">2</tspan></text>

<text xml:space="preserve" style="font-size: 16px; font-style: normal; font-variant: normal; font-weight: normal; font-stretch: normal; text-align: start; line-height: 125%; text-anchor: start; fill: black; fill-opacity: 1; stroke: none; stroke-width: 1px; stroke-linecap: butt; stroke-linejoin: miter; stroke-opacity: 1; font-family: Trebuchet MS;" x="153.728" y="400.981" id="text2927" sodipodi:linespacing="125%"><tspan sodipodi:role="line" id="tspan2929" x="153.728" y="400.981">3</tspan></text>

<text xml:space="preserve" style="font-size: 16px; font-style: normal; font-variant: normal; font-weight: normal; font-stretch: normal; text-align: start; line-height: 125%; text-anchor: start; fill: black; fill-opacity: 1; stroke: none; stroke-width: 1px; stroke-linecap: butt; stroke-linejoin: miter; stroke-opacity: 1; font-family: Trebuchet MS;" x="153.708" y="423.724" id="text2931" sodipodi:linespacing="125%"><tspan sodipodi:role="line" id="tspan2933" x="153.708" y="423.724">4</tspan></text>

<text xml:space="preserve" style="font-size: 16px; font-style: normal; font-variant: normal; font-weight: normal; font-stretch: normal; text-align: start; line-height: 125%; text-anchor: start; fill: black; fill-opacity: 1; stroke: none; stroke-width: 1px; stroke-linecap: butt; stroke-linejoin: miter; stroke-opacity: 1; font-family: Trebuchet MS;" x="153.567" y="477.1" id="text2935" sodipodi:linespacing="125%"><tspan sodipodi:role="line" id="tspan2937" x="153.567" y="477.1">5</tspan></text>

<path style="fill: none; fill-rule: evenodd; stroke: black; stroke-width: 0.664895; stroke-linecap: butt; stroke-linejoin: miter; stroke-miterlimit: 4; stroke-dasharray: none; stroke-opacity: 1;" d="M 145.34945,65.773025 L 151.34333,71.661825 L 145.57145,77.332525 L 145.34945,77.114419" id="path2939"/><path style="fill: none; fill-rule: evenodd; stroke: black; stroke-width: 0.664895; stroke-linecap: butt; stroke-linejoin: miter; stroke-miterlimit: 4; stroke-dasharray: none; stroke-opacity: 1;" d="M 103.50741,249.89042 L 97.727294,255.67053 L 103.29333,261.23657 L 103.50741,261.02249" id="path3826"/></svg>